sim_result/waves/waves_cpu_top.vcd
$version Generated by VerilatedVcd $end
$timescale 1ps $end
 $scope module TOP $end
  $scope module cpu_top_tb $end
   $var wire 1 # clk $end
   $var wire 1 $ rst $end
   $var wire 32 % cycle [31:0] $end
   $var wire 32 & pass_count [31:0] $end
   $var wire 32 ' fail_count [31:0] $end
   $scope module dut $end
    $var wire 1 ( clk $end
    $var wire 1 ) rst $end
    $var wire 32 * pc [31:0] $end
    $var wire 32 + pc_next [31:0] $end
    $var wire 32 , pc_plus4 [31:0] $end
    $var wire 32 - pc_branch [31:0] $end
    $var wire 32 . pc_jalr [31:0] $end
    $var wire 32 / instruction [31:0] $end
    $var wire 5 0 rs1_addr [4:0] $end
    $var wire 5 1 rs2_addr [4:0] $end
    $var wire 5 2 rd_addr [4:0] $end
    $var wire 32 3 imm_out [31:0] $end
    $var wire 4 4 alu_op [3:0] $end
    $var wire 2 5 alu_a_src [1:0] $end
    $var wire 1 6 alu_src $end
    $var wire 1 7 reg_write $end
    $var wire 1 8 mem_write $end
    $var wire 1 9 mem_read $end
    $var wire 3 : mem_size [2:0] $end
    $var wire 2 ; wb_sel [1:0] $end
    $var wire 1 < branch $end
    $var wire 3 = branch_op [2:0] $end
    $var wire 1 > jump $end
    $var wire 1 ? jalr $end
    $var wire 32 @ rd1 [31:0] $end
    $var wire 32 A rd2 [31:0] $end
    $var wire 32 B wb_data [31:0] $end
    $var wire 32 C alu_a [31:0] $end
    $var wire 32 D alu_b [31:0] $end
    $var wire 32 E alu_result [31:0] $end
    $var wire 1 F alu_zero $end
    $var wire 1 G alu_carry_out $end
    $var wire 1 H alu_overflow $end
    $var wire 1 I alu_negative $end
    $var wire 32 J mem_data_out [31:0] $end
    $var wire 1 K branch_taken $end
    $scope module ALU $end
     $var wire 32 L A [31:0] $end
     $var wire 32 M B [31:0] $end
     $var wire 4 N alu_op [3:0] $end
     $var wire 32 O result [31:0] $end
     $var wire 1 P zero $end
     $var wire 1 Q carry_out $end
     $var wire 1 R overflow $end
     $var wire 1 S negative $end
     $var wire 4 G! ADD_OP [3:0] $end
     $var wire 4 H! SUB_OP [3:0] $end
     $var wire 4 I! SLL_OP [3:0] $end
     $var wire 4 J! SLT_OP [3:0] $end
     $var wire 4 K! SLTU_OP [3:0] $end
     $var wire 4 L! XOR_OP [3:0] $end
     $var wire 4 M! SRL_OP [3:0] $end
     $var wire 4 N! SRA_OP [3:0] $end
     $var wire 4 O! OR_OP [3:0] $end
     $var wire 4 P! AND_OP [3:0] $end
     $var wire 33 T adder_result [32:0] $end
    $upscope $end
    $scope module DECODE $end
     $var wire 32 V instr [31:0] $end
     $var wire 4 W alu_op [3:0] $end
     $var wire 2 X alu_a_src [1:0] $end
     $var wire 1 Y alu_src $end
     $var wire 1 Z reg_write $end
     $var wire 1 [ mem_write $end
     $var wire 1 \ mem_read $end
     $var wire 3 ] mem_size [2:0] $end
     $var wire 2 ^ wb_sel [1:0] $end
     $var wire 1 _ branch $end
     $var wire 3 ` branch_op [2:0] $end
     $var wire 1 a jump $end
     $var wire 1 b jalr $end
     $var wire 7 c opcode [6:0] $end
     $var wire 3 d funct3 [2:0] $end
     $var wire 7 e funct7 [6:0] $end
     $var wire 7 Q! R_TYPE [6:0] $end
     $var wire 7 R! I_TYPE [6:0] $end
     $var wire 7 S! LOAD [6:0] $end
     $var wire 7 T! STORE [6:0] $end
     $var wire 7 U! BRANCH [6:0] $end
     $var wire 7 V! JAL [6:0] $end
     $var wire 7 W! JALR [6:0] $end
     $var wire 7 X! LUI [6:0] $end
     $var wire 7 Y! AUIPC [6:0] $end
     $var wire 2 Z! ALU_A_RS1 [1:0] $end
     $var wire 2 [! ALU_A_PC [1:0] $end
     $var wire 2 \! ALU_A_ZERO [1:0] $end
     $var wire 2 Z! WB_ALU [1:0] $end
     $var wire 2 [! WB_MEM [1:0] $end
     $var wire 2 \! WB_PC4 [1:0] $end
    $upscope $end
    $scope module DMEM $end
     $var wire 1 f clk $end
     $var wire 1 g rst $end
     $var wire 1 h mem_write $end
     $var wire 1 i mem_read $end
     $var wire 3 j mem_size [2:0] $end
     $var wire 32 k addr [31:0] $end
     $var wire 32 l data_in [31:0] $end
     $var wire 32 m data_out [31:0] $end
     $var wire 10 n word_addr [9:0] $end
     $var wire 2 o byte_offset [1:0] $end
     $var wire 32 p raw_word [31:0] $end
     $scope module unnamedblk1 $end
      $var wire 32 q i [31:0] $end
     $upscope $end
    $upscope $end
    $scope module IMEM $end
     $var wire 32 r addr [31:0] $end
     $var wire 32 s instruction [31:0] $end
    $upscope $end
    $scope module IMM_GEN $end
     $var wire 32 t instr [31:0] $end
     $var wire 32 u imm_out [31:0] $end
     $var wire 7 v opcode [6:0] $end
     $var wire 7 R! I_TYPE [6:0] $end
     $var wire 7 S! LOAD [6:0] $end
     $var wire 7 T! STORE [6:0] $end
     $var wire 7 U! BRANCH [6:0] $end
     $var wire 7 V! JAL [6:0] $end
     $var wire 7 W! JALR [6:0] $end
     $var wire 7 X! LUI [6:0] $end
     $var wire 7 Y! AUIPC [6:0] $end
    $upscope $end
    $scope module PC_REG $end
     $var wire 1 w clk $end
     $var wire 1 x rst $end
     $var wire 32 y pc_next [31:0] $end
     $var wire 32 z pc [31:0] $end
    $upscope $end
    $scope module REGFILE $end
     $var wire 1 { clk $end
     $var wire 1 | rst $end
     $var wire 1 } we $end
     $var wire 5 ~ rd [4:0] $end
     $var wire 5 !! rs1 [4:0] $end
     $var wire 5 "! rs2 [4:0] $end
     $var wire 32 #! wd [31:0] $end
     $var wire 32 $! rd1 [31:0] $end
     $var wire 32 %! rd2 [31:0] $end
     $var wire 32 &! regfile[0] [31:0] $end
     $var wire 32 '! regfile[1] [31:0] $end
     $var wire 32 (! regfile[2] [31:0] $end
     $var wire 32 )! regfile[3] [31:0] $end
     $var wire 32 *! regfile[4] [31:0] $end
     $var wire 32 +! regfile[5] [31:0] $end
     $var wire 32 ,! regfile[6] [31:0] $end
     $var wire 32 -! regfile[7] [31:0] $end
     $var wire 32 .! regfile[8] [31:0] $end
     $var wire 32 /! regfile[9] [31:0] $end
     $var wire 32 0! regfile[10] [31:0] $end
     $var wire 32 1! regfile[11] [31:0] $end
     $var wire 32 2! regfile[12] [31:0] $end
     $var wire 32 3! regfile[13] [31:0] $end
     $var wire 32 4! regfile[14] [31:0] $end
     $var wire 32 5! regfile[15] [31:0] $end
     $var wire 32 6! regfile[16] [31:0] $end
     $var wire 32 7! regfile[17] [31:0] $end
     $var wire 32 8! regfile[18] [31:0] $end
     $var wire 32 9! regfile[19] [31:0] $end
     $var wire 32 :! regfile[20] [31:0] $end
     $var wire 32 ;! regfile[21] [31:0] $end
     $var wire 32 <! regfile[22] [31:0] $end
     $var wire 32 =! regfile[23] [31:0] $end
     $var wire 32 >! regfile[24] [31:0] $end
     $var wire 32 ?! regfile[25] [31:0] $end
     $var wire 32 @! regfile[26] [31:0] $end
     $var wire 32 A! regfile[27] [31:0] $end
     $var wire 32 B! regfile[28] [31:0] $end
     $var wire 32 C! regfile[29] [31:0] $end
     $var wire 32 D! regfile[30] [31:0] $end
     $var wire 32 E! regfile[31] [31:0] $end
     $scope module unnamedblk1 $end
      $var wire 32 F! i [31:0] $end
     $upscope $end
    $upscope $end
   $upscope $end
  $upscope $end
 $upscope $end
$enddefinitions $end


#0
0#
1$
b00000000000000000000000000000000 %
b00000000000000000000000000000000 &
b00000000000000000000000000000000 '
0(
1)
b00000000000000000000000000000000 *
b00000000000000000000000000000100 +
b00000000000000000000000000000100 ,
b00000000000000000000000000000000 -
b00000000000000000000000000000000 .
b00000000000000000000000010010011 /
b00000 0
b00000 1
b00001 2
b00000000000000000000000000000000 3
b0000 4
b00 5
16
17
08
09
b010 :
b00 ;
0<
b000 =
0>
0?
b00000000000000000000000000000000 @
b00000000000000000000000000000000 A
b00000000000000000000000000000000 B
b00000000000000000000000000000000 C
b00000000000000000000000000000000 D
b00000000000000000000000000000000 E
1F
0G
0H
0I
b00000000000000000000000000000000 J
1K
b00000000000000000000000000000000 L
b00000000000000000000000000000000 M
b0000 N
b00000000000000000000000000000000 O
1P
0Q
0R
0S
b000000000000000000000000000000000 T
b00000000000000000000000010010011 V
b0000 W
b00 X
1Y
1Z
0[
0\
b010 ]
b00 ^
0_
b000 `
0a
0b
b0010011 c
b000 d
b0000000 e
0f
1g
0h
0i
b010 j
b00000000000000000000000000000000 k
b00000000000000000000000000000000 l
b00000000000000000000000000000000 m
b0000000000 n
b00 o
b00000000000000000000000000000000 p
b00000000000000000000000000000000 q
b00000000000000000000000000000000 r
b00000000000000000000000010010011 s
b00000000000000000000000010010011 t
b00000000000000000000000000000000 u
b0010011 v
0w
1x
b00000000000000000000000000000100 y
b00000000000000000000000000000000 z
0{
1|
1}
b00001 ~
b00000 !!
b00000 "!
b00000000000000000000000000000000 #!
b00000000000000000000000000000000 $!
b00000000000000000000000000000000 %!
b00000000000000000000000000000000 &!
b00000000000000000000000000000000 '!
b00000000000000000000000000000000 (!
b00000000000000000000000000000000 )!
b00000000000000000000000000000000 *!
b00000000000000000000000000000000 +!
b00000000000000000000000000000000 ,!
b00000000000000000000000000000000 -!
b00000000000000000000000000000000 .!
b00000000000000000000000000000000 /!
b00000000000000000000000000000000 0!
b00000000000000000000000000000000 1!
b00000000000000000000000000000000 2!
b00000000000000000000000000000000 3!
b00000000000000000000000000000000 4!
b00000000000000000000000000000000 5!
b00000000000000000000000000000000 6!
b00000000000000000000000000000000 7!
b00000000000000000000000000000000 8!
b00000000000000000000000000000000 9!
b00000000000000000000000000000000 :!
b00000000000000000000000000000000 ;!
b00000000000000000000000000000000 <!
b00000000000000000000000000000000 =!
b00000000000000000000000000000000 >!
b00000000000000000000000000000000 ?!
b00000000000000000000000000000000 @!
b00000000000000000000000000000000 A!
b00000000000000000000000000000000 B!
b00000000000000000000000000000000 C!
b00000000000000000000000000000000 D!
b00000000000000000000000000000000 E!
b00000000000000000000000000000000 F!
b0000 G!
b1000 H!
b0001 I!
b0010 J!
b0011 K!
b0100 L!
b0101 M!
b1101 N!
b0110 O!
b0111 P!
b0110011 Q!
b0010011 R!
b0000011 S!
b0100011 T!
b1100011 U!
b1101111 V!
b1100111 W!
b0110111 X!
b0010111 Y!
b00 Z!
b01 [!
b10 \!
#5
1#
b00000000000000000000000000000001 %
1(
1f
b00000000000000000000010000000000 q
1w
1{
b00000000000000000000000000100000 F!
#10
0#
0(
0f
0w
0{
#15
1#
b00000000000000000000000000000010 %
1(
1f
1w
1{
#20
0#
0(
0f
0w
0{
#25
1#
0$
b00000000000000000000000000000011 %
1(
0)
b00000000000000000000000000000100 *
b00000000000000000000000000001000 +
b00000000000000000000000000001000 ,
b00000000000000000000000000000101 -
b00000000000100000000000100010011 /
b00001 1
b00010 2
b00000000000000000000000000000001 3
b00000000000000000000000000000001 B
b00000000000000000000000000000001 D
b00000000000000000000000000000001 E
0F
0K
b00000000000000000000000000000001 M
b00000000000000000000000000000001 O
0P
b000000000000000000000000000000001 T
b00000000000100000000000100010011 V
1f
0g
b00000000000000000000000000000001 k
b01 o
b00000000000000000000000000000100 r
b00000000000100000000000100010011 s
b00000000000100000000000100010011 t
b00000000000000000000000000000001 u
1w
0x
b00000000000000000000000000001000 y
b00000000000000000000000000000100 z
1{
0|
b00010 ~
b00001 "!
b00000000000000000000000000000001 #!
#30
0#
0(
0f
0w
0{
#35
1#
b00000000000000000000000000000100 %
1(
b00000000000000000000000000001000 *
b00000000000000000000000000001100 +
b00000000000000000000000000001100 ,
b00000000000000000000000000010010 -
b00000000000000000000000000001010 .
b00000000101000000000010100010011 /
b01010 1
b01010 2
b00000000000000000000000000001010 3
b00000000000000000000000000001010 B
b00000000000000000000000000001010 D
b00000000000000000000000000001010 E
b00000000000000000000000000001010 M
b00000000000000000000000000001010 O
b000000000000000000000000000001010 T
b00000000101000000000010100010011 V
1f
b00000000000000000000000000001010 k
b0000000010 n
b10 o
b00000000000000000000000000001000 r
b00000000101000000000010100010011 s
b00000000101000000000010100010011 t
b00000000000000000000000000001010 u
1w
b00000000000000000000000000001100 y
b00000000000000000000000000001000 z
1{
b01010 ~
b01010 "!
b00000000000000000000000000001010 #!
b00000000000000000000000000000001 (!
#36
#40
0#
0(
0f
0w
0{
#45
1#
b00000000000000000000000000000101 %
1(
b00000000000000000000000000001100 *
b00000000000000000000000000010000 +
b00000000000000000000000000010000 ,
b00000000000000000000000000001100 -
b00000000000000000000000000000000 .
b00000000001000001000000110110011 /
b00001 0
b00010 1
b00011 2
b00000000000000000000000000000000 3
06
b00000000000000000000000000000001 A
b00000000000000000000000000000001 B
b00000000000000000000000000000001 D
b00000000000000000000000000000001 E
b00000000000000000000000000000001 M
b00000000000000000000000000000001 O
b000000000000000000000000000000001 T
b00000000001000001000000110110011 V
0Y
b0110011 c
1f
b00000000000000000000000000000001 k
b00000000000000000000000000000001 l
b0000000000 n
b01 o
b00000000000000000000000000001100 r
b00000000001000001000000110110011 s
b00000000001000001000000110110011 t
b00000000000000000000000000000000 u
b0110011 v
1w
b00000000000000000000000000010000 y
b00000000000000000000000000001100 z
1{
b00011 ~
b00001 !!
b00010 "!
b00000000000000000000000000000001 #!
b00000000000000000000000000000001 %!
b00000000000000000000000000001010 0!
#46
#50
0#
0(
0f
0w
0{
#55
1#
b00000000000000000000000000000110 %
1(
b00000000000000000000000000010000 *
b00000000000000000000000000010100 +
b00000000000000000000000000010100 ,
b00000000000000000000000000010000 -
b00000000000000010000000010010011 /
b00010 0
b00000 1
b00001 2
16
b00000000000000000000000000000001 @
b00000000000000000000000000000000 A
b00000000000000000000000000000001 C
b00000000000000000000000000000000 D
b00000000000000000000000000000001 L
b00000000000000000000000000000000 M
b00000000000000010000000010010011 V
1Y
b0010011 c
1f
b00000000000000000000000000000000 l
b00000000000000000000000000010000 r
b00000000000000010000000010010011 s
b00000000000000010000000010010011 t
b0010011 v
1w
b00000000000000000000000000010100 y
b00000000000000000000000000010000 z
1{
b00001 ~
b00010 !!
b00000 "!
b00000000000000000000000000000001 $!
b00000000000000000000000000000000 %!
b00000000000000000000000000000001 )!
#56
#60
0#
0(
0f
0w
0{
#65
1#
b00000000000000000000000000000111 %
1(
b00000000000000000000000000010100 *
b00000000000000000000000000011000 +
b00000000000000000000000000011000 ,
b00000000000000000000000000010100 -
b00000000000000011000000100010011 /
b00011 0
b00010 2
b00000000000000011000000100010011 V
1f
b00000000000000000000000000010100 r
b00000000000000011000000100010011 s
b00000000000000011000000100010011 t
1w
b00000000000000000000000000011000 y
b00000000000000000000000000010100 z
1{
b00010 ~
b00011 !!
b00000000000000000000000000000001 '!
#66
#70
0#
0(
0f
0w
0{
#75
1#
b00000000000000000000000000001000 %
1(
b00000000000000000000000000011000 *
b00000000000000000000000000011100 +
b00000000000000000000000000011100 ,
b00000000000000000000000000010111 -
b00000000000000000000000000001000 .
b11111111111101010000010100010011 /
b01010 0
b11111 1
b01010 2
b11111111111111111111111111111111 3
b00000000000000000000000000001010 @
b00000000000000000000000000001001 B
b00000000000000000000000000001010 C
b11111111111111111111111111111111 D
b00000000000000000000000000001001 E
1G
b00000000000000000000000000001010 L
b11111111111111111111111111111111 M
b00000000000000000000000000001001 O
1Q
b100000000000000000000000000001001 T
b11111111111101010000010100010011 V
b1111111 e
1f
b00000000000000000000000000001001 k
b0000000010 n
b00000000000000000000000000011000 r
b11111111111101010000010100010011 s
b11111111111101010000010100010011 t
b11111111111111111111111111111111 u
1w
b00000000000000000000000000011100 y
b00000000000000000000000000011000 z
1{
b01010 ~
b01010 !!
b11111 "!
b00000000000000000000000000001001 #!
b00000000000000000000000000001010 $!
#76
#80
0#
0(
0f
0w
0{
#85
1#
b00000000000000000000000000001001 %
1(
b00000000000000000000000000011100 *
b00000000000000000000000000001100 +
b00000000000000000000000000100000 ,
b00000000000000000000000000001100 -
b11111110000001010001100011100011 /
b00000 1
b10001 2
b11111111111111111111111111110000 3
b1000 4
06
07
1<
b001 =
b00000000000000000000000000001001 @
b00000000000000000000000000001001 C
b00000000000000000000000000000000 D
0G
1K
b00000000000000000000000000001001 L
b00000000000000000000000000000000 M
b1000 N
0Q
b000000000000000000000000000001001 T
b11111110000001010001100011100011 V
b1000 W
0Y
0Z
1_
b001 `
b1100011 c
b001 d
1f
b00000000000000000000000000011100 r
b11111110000001010001100011100011 s
b11111110000001010001100011100011 t
b11111111111111111111111111110000 u
b1100011 v
1w
b00000000000000000000000000001100 y
b00000000000000000000000000011100 z
1{
0}
b10001 ~
b00000 "!
b00000000000000000000000000001001 $!
b00000000000000000000000000001001 0!
#86
#90
0#
0(
0f
0w
0{
#95
1#
b00000000000000000000000000001010 %
1(
b00000000000000000000000000001100 *
b00000000000000000000000000010000 +
b00000000000000000000000000010000 ,
b00000000000000000000000000000010 .
b00000000001000001000000110110011 /
b00001 0
b00010 1
b00011 2
b00000000000000000000000000000000 3
b0000 4
17
0<
b000 =
b00000000000000000000000000000001 @
b00000000000000000000000000000001 A
b00000000000000000000000000000010 B
b00000000000000000000000000000001 C
b00000000000000000000000000000001 D
b00000000000000000000000000000010 E
0K
b00000000000000000000000000000001 L
b00000000000000000000000000000001 M
b0000 N
b00000000000000000000000000000010 O
b000000000000000000000000000000010 T
b00000000001000001000000110110011 V
b0000 W
1Z
0_
b000 `
b0110011 c
b000 d
b0000000 e
1f
b00000000000000000000000000000010 k
b00000000000000000000000000000001 l
b0000000000 n
b10 o
b00000000000000000000000000001100 r
b00000000001000001000000110110011 s
b00000000001000001000000110110011 t
b00000000000000000000000000000000 u
b0110011 v
1w
b00000000000000000000000000010000 y
b00000000000000000000000000001100 z
1{
1}
b00011 ~
b00001 !!
b00010 "!
b00000000000000000000000000000010 #!
b00000000000000000000000000000001 $!
b00000000000000000000000000000001 %!
#96
#100
0#
0(
0f
0w
0{
#105
1#
b00000000000000000000000000001011 %
1(
b00000000000000000000000000010000 *
b00000000000000000000000000010100 +
b00000000000000000000000000010100 ,
b00000000000000000000000000010000 -
b00000000000000000000000000000000 .
b00000000000000010000000010010011 /
b00010 0
b00000 1
b00001 2
16
b00000000000000000000000000000000 A
b00000000000000000000000000000001 B
b00000000000000000000000000000000 D
b00000000000000000000000000000001 E
b00000000000000000000000000000000 M
b00000000000000000000000000000001 O
b000000000000000000000000000000001 T
b00000000000000010000000010010011 V
1Y
b0010011 c
1f
b00000000000000000000000000000001 k
b00000000000000000000000000000000 l
b01 o
b00000000000000000000000000010000 r
b00000000000000010000000010010011 s
b00000000000000010000000010010011 t
b0010011 v
1w
b00000000000000000000000000010100 y
b00000000000000000000000000010000 z
1{
b00001 ~
b00010 !!
b00000 "!
b00000000000000000000000000000001 #!
b00000000000000000000000000000000 %!
b00000000000000000000000000000010 )!
#106
#110
0#
0(
0f
0w
0{
#115
1#
b00000000000000000000000000001100 %
1(
b00000000000000000000000000010100 *
b00000000000000000000000000011000 +
b00000000000000000000000000011000 ,
b00000000000000000000000000010100 -
b00000000000000000000000000000010 .
b00000000000000011000000100010011 /
b00011 0
b00010 2
b00000000000000000000000000000010 @
b00000000000000000000000000000010 B
b00000000000000000000000000000010 C
b00000000000000000000000000000010 E
b00000000000000000000000000000010 L
b00000000000000000000000000000010 O
b000000000000000000000000000000010 T
b00000000000000011000000100010011 V
1f
b00000000000000000000000000000010 k
b10 o
b00000000000000000000000000010100 r
b00000000000000011000000100010011 s
b00000000000000011000000100010011 t
1w
b00000000000000000000000000011000 y
b00000000000000000000000000010100 z
1{
b00010 ~
b00011 !!
b00000000000000000000000000000010 #!
b00000000000000000000000000000010 $!
#116
#120
0#
0(
0f
0w
0{
#125
1#
b00000000000000000000000000001101 %
1(
b00000000000000000000000000011000 *
b00000000000000000000000000011100 +
b00000000000000000000000000011100 ,
b00000000000000000000000000010111 -
b00000000000000000000000000001000 .
b11111111111101010000010100010011 /
b01010 0
b11111 1
b01010 2
b11111111111111111111111111111111 3
b00000000000000000000000000001001 @
b00000000000000000000000000001000 B
b00000000000000000000000000001001 C
b11111111111111111111111111111111 D
b00000000000000000000000000001000 E
1G
b00000000000000000000000000001001 L
b11111111111111111111111111111111 M
b00000000000000000000000000001000 O
1Q
b100000000000000000000000000001000 T
b11111111111101010000010100010011 V
b1111111 e
1f
b00000000000000000000000000001000 k
b0000000010 n
b00 o
b00000000000000000000000000011000 r
b11111111111101010000010100010011 s
b11111111111101010000010100010011 t
b11111111111111111111111111111111 u
1w
b00000000000000000000000000011100 y
b00000000000000000000000000011000 z
1{
b01010 ~
b01010 !!
b11111 "!
b00000000000000000000000000001000 #!
b00000000000000000000000000001001 $!
b00000000000000000000000000000010 (!
#126
#130
0#
0(
0f
0w
0{
#135
1#
b00000000000000000000000000001110 %
1(
b00000000000000000000000000011100 *
b00000000000000000000000000001100 +
b00000000000000000000000000100000 ,
b00000000000000000000000000001100 -
b11111110000001010001100011100011 /
b00000 1
b10001 2
b11111111111111111111111111110000 3
b1000 4
06
07
1<
b001 =
b00000000000000000000000000001000 @
b00000000000000000000000000001000 C
b00000000000000000000000000000000 D
0G
1K
b00000000000000000000000000001000 L
b00000000000000000000000000000000 M
b1000 N
0Q
b000000000000000000000000000001000 T
b11111110000001010001100011100011 V
b1000 W
0Y
0Z
1_
b001 `
b1100011 c
b001 d
1f
b00000000000000000000000000011100 r
b11111110000001010001100011100011 s
b11111110000001010001100011100011 t
b11111111111111111111111111110000 u
b1100011 v
1w
b00000000000000000000000000001100 y
b00000000000000000000000000011100 z
1{
0}
b10001 ~
b00000 "!
b00000000000000000000000000001000 $!
b00000000000000000000000000001000 0!
#136
#140
0#
0(
0f
0w
0{
#145
1#
b00000000000000000000000000001111 %
1(
b00000000000000000000000000001100 *
b00000000000000000000000000010000 +
b00000000000000000000000000010000 ,
b00000000000000000000000000000010 .
b00000000001000001000000110110011 /
b00001 0
b00010 1
b00011 2
b00000000000000000000000000000000 3
b0000 4
17
0<
b000 =
b00000000000000000000000000000001 @
b00000000000000000000000000000010 A
b00000000000000000000000000000011 B
b00000000000000000000000000000001 C
b00000000000000000000000000000010 D
b00000000000000000000000000000011 E
0K
b00000000000000000000000000000001 L
b00000000000000000000000000000010 M
b0000 N
b00000000000000000000000000000011 O
b000000000000000000000000000000011 T
b00000000001000001000000110110011 V
b0000 W
1Z
0_
b000 `
b0110011 c
b000 d
b0000000 e
1f
b00000000000000000000000000000011 k
b00000000000000000000000000000010 l
b0000000000 n
b11 o
b00000000000000000000000000001100 r
b00000000001000001000000110110011 s
b00000000001000001000000110110011 t
b00000000000000000000000000000000 u
b0110011 v
1w
b00000000000000000000000000010000 y
b00000000000000000000000000001100 z
1{
1}
b00011 ~
b00001 !!
b00010 "!
b00000000000000000000000000000011 #!
b00000000000000000000000000000001 $!
b00000000000000000000000000000010 %!
#146
#150
0#
0(
0f
0w
0{
#155
1#
b00000000000000000000000000010000 %
1(
b00000000000000000000000000010000 *
b00000000000000000000000000010100 +
b00000000000000000000000000010100 ,
b00000000000000000000000000010000 -
b00000000000000010000000010010011 /
b00010 0
b00000 1
b00001 2
16
b00000000000000000000000000000010 @
b00000000000000000000000000000000 A
b00000000000000000000000000000010 B
b00000000000000000000000000000010 C
b00000000000000000000000000000000 D
b00000000000000000000000000000010 E
b00000000000000000000000000000010 L
b00000000000000000000000000000000 M
b00000000000000000000000000000010 O
b000000000000000000000000000000010 T
b00000000000000010000000010010011 V
1Y
b0010011 c
1f
b00000000000000000000000000000010 k
b00000000000000000000000000000000 l
b10 o
b00000000000000000000000000010000 r
b00000000000000010000000010010011 s
b00000000000000010000000010010011 t
b0010011 v
1w
b00000000000000000000000000010100 y
b00000000000000000000000000010000 z
1{
b00001 ~
b00010 !!
b00000 "!
b00000000000000000000000000000010 #!
b00000000000000000000000000000010 $!
b00000000000000000000000000000000 %!
b00000000000000000000000000000011 )!
#156
#160
0#
0(
0f
0w
0{
#165
1#
b00000000000000000000000000010001 %
1(
b00000000000000000000000000010100 *
b00000000000000000000000000011000 +
b00000000000000000000000000011000 ,
b00000000000000000000000000010100 -
b00000000000000011000000100010011 /
b00011 0
b00010 2
b00000000000000000000000000000011 @
b00000000000000000000000000000011 B
b00000000000000000000000000000011 C
b00000000000000000000000000000011 E
b00000000000000000000000000000011 L
b00000000000000000000000000000011 O
b000000000000000000000000000000011 T
b00000000000000011000000100010011 V
1f
b00000000000000000000000000000011 k
b11 o
b00000000000000000000000000010100 r
b00000000000000011000000100010011 s
b00000000000000011000000100010011 t
1w
b00000000000000000000000000011000 y
b00000000000000000000000000010100 z
1{
b00010 ~
b00011 !!
b00000000000000000000000000000011 #!
b00000000000000000000000000000011 $!
b00000000000000000000000000000010 '!
#166
#170
0#
0(
0f
0w
0{
#175
1#
b00000000000000000000000000010010 %
1(
b00000000000000000000000000011000 *
b00000000000000000000000000011100 +
b00000000000000000000000000011100 ,
b00000000000000000000000000010111 -
b00000000000000000000000000000110 .
b11111111111101010000010100010011 /
b01010 0
b11111 1
b01010 2
b11111111111111111111111111111111 3
b00000000000000000000000000001000 @
b00000000000000000000000000000111 B
b00000000000000000000000000001000 C
b11111111111111111111111111111111 D
b00000000000000000000000000000111 E
1G
b00000000000000000000000000001000 L
b11111111111111111111111111111111 M
b00000000000000000000000000000111 O
1Q
b100000000000000000000000000000111 T
b11111111111101010000010100010011 V
b1111111 e
1f
b00000000000000000000000000000111 k
b0000000001 n
b00000000000000000000000000011000 r
b11111111111101010000010100010011 s
b11111111111101010000010100010011 t
b11111111111111111111111111111111 u
1w
b00000000000000000000000000011100 y
b00000000000000000000000000011000 z
1{
b01010 ~
b01010 !!
b11111 "!
b00000000000000000000000000000111 #!
b00000000000000000000000000001000 $!
b00000000000000000000000000000011 (!
#176
#180
0#
0(
0f
0w
0{
#185
1#
b00000000000000000000000000010011 %
1(
b00000000000000000000000000011100 *
b00000000000000000000000000001100 +
b00000000000000000000000000100000 ,
b00000000000000000000000000001100 -
b11111110000001010001100011100011 /
b00000 1
b10001 2
b11111111111111111111111111110000 3
b1000 4
06
07
1<
b001 =
b00000000000000000000000000000111 @
b00000000000000000000000000000111 C
b00000000000000000000000000000000 D
0G
1K
b00000000000000000000000000000111 L
b00000000000000000000000000000000 M
b1000 N
0Q
b000000000000000000000000000000111 T
b11111110000001010001100011100011 V
b1000 W
0Y
0Z
1_
b001 `
b1100011 c
b001 d
1f
b00000000000000000000000000011100 r
b11111110000001010001100011100011 s
b11111110000001010001100011100011 t
b11111111111111111111111111110000 u
b1100011 v
1w
b00000000000000000000000000001100 y
b00000000000000000000000000011100 z
1{
0}
b10001 ~
b00000 "!
b00000000000000000000000000000111 $!
b00000000000000000000000000000111 0!
#186
#190
0#
0(
0f
0w
0{
#195
1#
b00000000000000000000000000010100 %
1(
b00000000000000000000000000001100 *
b00000000000000000000000000010000 +
b00000000000000000000000000010000 ,
b00000000000000000000000000000100 .
b00000000001000001000000110110011 /
b00001 0
b00010 1
b00011 2
b00000000000000000000000000000000 3
b0000 4
17
0<
b000 =
b00000000000000000000000000000010 @
b00000000000000000000000000000011 A
b00000000000000000000000000000101 B
b00000000000000000000000000000010 C
b00000000000000000000000000000011 D
b00000000000000000000000000000101 E
0K
b00000000000000000000000000000010 L
b00000000000000000000000000000011 M
b0000 N
b00000000000000000000000000000101 O
b000000000000000000000000000000101 T
b00000000001000001000000110110011 V
b0000 W
1Z
0_
b000 `
b0110011 c
b000 d
b0000000 e
1f
b00000000000000000000000000000101 k
b00000000000000000000000000000011 l
b01 o
b00000000000000000000000000001100 r
b00000000001000001000000110110011 s
b00000000001000001000000110110011 t
b00000000000000000000000000000000 u
b0110011 v
1w
b00000000000000000000000000010000 y
b00000000000000000000000000001100 z
1{
1}
b00011 ~
b00001 !!
b00010 "!
b00000000000000000000000000000101 #!
b00000000000000000000000000000010 $!
b00000000000000000000000000000011 %!
#196
#200
0#
0(
0f
0w
0{
#205
1#
b00000000000000000000000000010101 %
1(
b00000000000000000000000000010000 *
b00000000000000000000000000010100 +
b00000000000000000000000000010100 ,
b00000000000000000000000000010000 -
b00000000000000000000000000000010 .
b00000000000000010000000010010011 /
b00010 0
b00000 1
b00001 2
16
b00000000000000000000000000000011 @
b00000000000000000000000000000000 A
b00000000000000000000000000000011 B
b00000000000000000000000000000011 C
b00000000000000000000000000000000 D
b00000000000000000000000000000011 E
b00000000000000000000000000000011 L
b00000000000000000000000000000000 M
b00000000000000000000000000000011 O
b000000000000000000000000000000011 T
b00000000000000010000000010010011 V
1Y
b0010011 c
1f
b00000000000000000000000000000011 k
b00000000000000000000000000000000 l
b0000000000 n
b11 o
b00000000000000000000000000010000 r
b00000000000000010000000010010011 s
b00000000000000010000000010010011 t
b0010011 v
1w
b00000000000000000000000000010100 y
b00000000000000000000000000010000 z
1{
b00001 ~
b00010 !!
b00000 "!
b00000000000000000000000000000011 #!
b00000000000000000000000000000011 $!
b00000000000000000000000000000000 %!
b00000000000000000000000000000101 )!
#206
#210
0#
0(
0f
0w
0{
